…
## Working with Plates

Create a data frame for plate-based data.

``` r
well_plate(8, 12)
#> # A tibble: 96 × 3
#>      row   col well 
#>    <int> <int> <chr>
#>  1     1     1 A01  
#>  2     1     2 A02  
#>  3     1     3 A03  
#>  4     1     4 A04  
#>  5     1     5 A05  
#>  6     1     6 A06  
#>  7     1     7 A07  
#>  8     1     8 A08  
#>  9     1     9 A09  
#> 10     1    10 A10  
#> # … with 86 more rows
```
…
