# reading of blocks

    Code
      read_data_block(lines)
    Output
      # A tibble: 3,936 x 3
         wavelength well  value
              <dbl> <chr> <dbl>
       1        300 A01   0.28 
       2        300 A02   0.284
       3        300 A03   0.285
       4        300 A04   0.285
       5        300 A05   0.285
       6        300 A06   0.284
       7        300 A07   0.275
       8        300 A08   0.279
       9        300 A09   0.282
      10        300 A10   0.28 
      # i 3,926 more rows
