Turn a Multi-Frame Matrix into a DataFrame — well_mat_frames_to_df • wellr
…
# convert the matrix back to a dataframe
well_mat_frames_to_df(mat)
#> # A tibble: 960 × 5
#>    well    row   col   value frames
#>    <chr> <dbl> <dbl>   <dbl> <chr> 
#>  1 A01       1     1 -0.661  1     
#>  2 A02       1     2 -0.0245 1     
#>  3 A03       1     3  0.210  1     
#>  4 A04       1     4 -0.563  1     
#>  5 A05       1     5 -0.0326 1     
#>  6 A06       1     6  0.133  1     
#>  7 A07       1     7 -0.0581 1     
#>  8 A08       1     8 -0.438  1     
#>  9 A09       1     9  1.62   1     
#> 10 A10       1    10 -0.470  1     
#> # … with 950 more rows
…
